\relax 
\citation{Yesin_06}
\citation{Kummer_10}
\citation{Kratochvil_14}
\@writefile{toc}{\contentsline {section}{\numberline {I}INTRODUCTION}{1}}
\@writefile{toc}{\contentsline {subsection}{\numberline {I-A}Notation}{1}}
\@writefile{toc}{\contentsline {section}{\numberline {II}MAGNETIC FIELD MANIPULATION}{1}}
\@writefile{toc}{\contentsline {subsection}{\numberline {II-A}MMS Representation}{1}}
\newlabel{eq:current_to_field}{{2}{1}}
\@writefile{toc}{\contentsline {subsection}{\numberline {II-B}MMS Calibration (Andrew)}{1}}
\citation{Petruska_14}
\newlabel{eq:gauss_law}{{3}{2}}
\newlabel{eq:ampere_law}{{4}{2}}
\newlabel{eq:grad_potential}{{5}{2}}
\newlabel{eq:laplace}{{6}{2}}
\newlabel{eq:laplace_solution}{{7}{2}}
\newlabel{eq:b_solution}{{8}{2}}
\newlabel{eq:current_to_z}{{9}{2}}
\@writefile{toc}{\contentsline {section}{\numberline {III}Statistical Properties of Magnetic Fields and Gradients}{2}}
\@writefile{toc}{\contentsline {subsection}{\numberline {III-A}Current Uncertainty}{2}}
\newlabel{eq:current_dist}{{10}{2}}
\newlabel{eq:z_dist}{{11}{2}}
\citation{Oehlert_92}
\citation{Beleggia_06}
\citation{Abbott_07}
\@writefile{toc}{\contentsline {subsection}{\numberline {III-B}Position Uncertainty}{3}}
\newlabel{eq:dist_p}{{12}{3}}
\newlabel{eq:taylor_z_p}{{13}{3}}
\newlabel{eq:J_z_p}{{14}{3}}
\newlabel{eq:dist_z_given_p}{{15}{3}}
\@writefile{toc}{\contentsline {subsection}{\numberline {III-C}Force and Torque Control of a Soft-magnetic Tool}{3}}
\newlabel{eq:softmag_moment}{{16}{3}}
\@writefile{lof}{\contentsline {figure}{\numberline {1}{\ignorespaces Histogram from a Monte-carlo simulation of the magnetic field intensity given a Gaussian distributed position vector. 5000 position samples are drawn from a Gaussian distribution with its mean at the origin and uncorrelated isotropic variance of $10^-7 \nobreakspace  {} m^2$. The deterministic currents are set to generate a $\SI {5}{\milli \tesla }$ field in the x-direction. The histogram shows that the resulting magnetic field can be approximated with a multi-variate Gaussian distribution.}}{3}}
\newlabel{fig:hist_bx_by_pos}{{1}{3}}
\newlabel{eq:demag_factor_ellipse}{{17}{3}}
\newlabel{eq:magnetic_force}{{18}{3}}
\newlabel{eq:force_soft_bilinear}{{19}{3}}
\newlabel{eq:force_quad_soft}{{20}{3}}
\citation{Baldessari_67}
\citation{Tan_77}
\@writefile{lof}{\contentsline {figure}{\numberline {2}{\ignorespaces Soft magnetic ellipsoidal tool. The ellipsoid is symmetric along two principal axes meaning that $b=c$, and has an aspect ratio $r=2$ such that $a = 2b$. A similarity transformation $\mathbb  {R}$ defines the pose of the ellipsoid and transforms the $(x,y,z)$ axis to align along the principle axes $(a,b,c)$ of the ellispoid. The tool is immersed in a magnetic field $\mathbf  {B}$ in the x- direction causing it to have a magnetization $\mathbf  {m}_s$.}}{4}}
\newlabel{fig:ellipsoid}{{2}{4}}
\newlabel{eq:magnetic_torque}{{24}{4}}
\newlabel{eq:torque_quad_soft}{{25}{4}}
\newlabel{eq:expected_force}{{29}{4}}
\newlabel{eq:expected_torque}{{30}{4}}
\newlabel{eq:sum_chi_square}{{31}{4}}
\newlabel{eq:force_var_s}{{33}{4}}
\newlabel{eq:torque_var}{{34}{4}}
\@writefile{toc}{\contentsline {subsubsection}{\numberline {III-C.1}Torque Control And Propagation of Orientation Uncertainty}{5}}
\newlabel{eq:torque_normal_soft}{{35}{5}}
\newlabel{eq:exponential_map_so3}{{37}{5}}
\newlabel{eq:uncertainty_so3}{{40}{5}}
\newlabel{eq:jacobian_magnetic_moment_rotation}{{43}{5}}
\newlabel{eq:jacobian_torque_rotation}{{45}{5}}
\@writefile{toc}{\contentsline {subsection}{\numberline {III-D}Force Control of a Hard-magnetic Tool}{5}}
\newlabel{eq:hardmag_moment}{{46}{5}}
\citation{Arulampalam_02}
\@writefile{lof}{\contentsline {figure}{\numberline {3}{\ignorespaces Relative errors of the mean and variance of $\mathaccentV {hat}05E{\mathbf  {B}}$ between a Monte-carlo estimation and the linearized gaussian approximation. The field is in the x-direction, therefore the mean approximation error (solid) for the x component only is shown. The variance approximation error (dashed) is shown in all directions.}}{6}}
\newlabel{fig:gaussian_aprox}{{3}{6}}
\newlabel{eq:expected_force_hard}{{55}{6}}
\newlabel{eq:force_var_h}{{56}{6}}
\@writefile{toc}{\contentsline {subsection}{\numberline {III-E}Optimal Currents for Maximizing the Robustness of Force and Torque Control}{6}}
\newlabel{eq:combined_var_minimizer}{{57}{6}}
\citation{Harbrecht_12}
\citation{Kratochvil_14}
\newlabel{eq:unweighted_min}{{60}{7}}
\newlabel{eq:w_decomp}{{61}{7}}
\newlabel{eq:w_decomp}{{64}{7}}
\@writefile{toc}{\contentsline {section}{\numberline {IV}NUMERICAL SIMULATIONS}{7}}
\@writefile{toc}{\contentsline {subsection}{\numberline {IV-A}Soft-magnetic Force and Torque Control}{7}}
\@writefile{lof}{\contentsline {figure}{\numberline {4}{\ignorespaces Relative errors of the mean and variance of $\mathaccentV {hat}05E{\mathbf  {B}}$ between a Monte-carlo estimation and the linearized gaussian approximation. The field is in the x-direction, therefore the mean approximation error (solid) for the x component only is shown. The variance approximation error (dashed) is shown in all directions.}}{7}}
\newlabel{fig:gaussian_aprox}{{4}{7}}
\@writefile{toc}{\contentsline {section}{\numberline {V}CONCLUSIONS}{7}}
\bibstyle{IEEEtran}
\bibdata{IEEEabrv,../../Literature/references}
\bibcite{Yesin_06}{1}
\bibcite{Kummer_10}{2}
\bibcite{Kratochvil_14}{3}
\bibcite{Petruska_14}{4}
\bibcite{Oehlert_92}{5}
\bibcite{Beleggia_06}{6}
\bibcite{Abbott_07}{7}
\bibcite{Baldessari_67}{8}
\bibcite{Tan_77}{9}
\bibcite{Arulampalam_02}{10}
\bibcite{Harbrecht_12}{11}
\@writefile{toc}{\contentsline {section}{References}{8}}
