% Generated by IEEEtran.bst, version: 1.13 (2008/09/30)
\begin{thebibliography}{10}
\providecommand{\url}[1]{#1}
\csname url@samestyle\endcsname
\providecommand{\newblock}{\relax}
\providecommand{\bibinfo}[2]{#2}
\providecommand{\BIBentrySTDinterwordspacing}{\spaceskip=0pt\relax}
\providecommand{\BIBentryALTinterwordstretchfactor}{4}
\providecommand{\BIBentryALTinterwordspacing}{\spaceskip=\fontdimen2\font plus
\BIBentryALTinterwordstretchfactor\fontdimen3\font minus
  \fontdimen4\font\relax}
\providecommand{\BIBforeignlanguage}[2]{{%
\expandafter\ifx\csname l@#1\endcsname\relax
\typeout{** WARNING: IEEEtran.bst: No hyphenation pattern has been}%
\typeout{** loaded for the language `#1'. Using the pattern for}%
\typeout{** the default language instead.}%
\else
\language=\csname l@#1\endcsname
\fi
#2}}
\providecommand{\BIBdecl}{\relax}
\BIBdecl

\bibitem{Yesin_06}
\BIBentryALTinterwordspacing
K.~B. Yesin, K.~Vollmers, and B.~Nelson, ``Modeling and control of untethered
  biomicrorobots in a fluidic environment using electromagnetic fields,''
  \emph{The International Journal of Robotics Research}, vol.~25, no. 5-6, pp.
  527--536, 2006. [Online]. Available:
  \url{http://ijr.sagepub.com/content/25/5-6/527.abstract}
\BIBentrySTDinterwordspacing

\bibitem{Kummer_10}
M.~Kummer, J.~Abbott, B.~Kratochvil, R.~Borer, A.~Sengul, and B.~Nelson,
  ``Octomag: An electromagnetic system for 5-dof wireless micromanipulation,''
  \emph{IEEE Transactions on Robotics}, vol.~26, no.~6, pp. pp. 1006--1017,
  September 2010.

\bibitem{Kratochvil_14}
B.~Kratochvil, M.~Kummer, S.~Erni, R.~Borer, D.~Frutiger, S.~Sch{\"u}rle, and
  B.~Nelson, ``Minimag: a hemispherical electromagnetic system for 5-dof
  wireless micromanipulation,'' in \emph{Experimental Robotics}.\hskip 1em plus
  0.5em minus 0.4em\relax Springer, 2014, pp. 317--329.

\bibitem{Petruska_14}
A.~J. Petruska and B.~J. Nelson, ``Singularity free remote magnetic
  manipulation: How many electromagnets are required?'' September 2014, under
  review for ICRA 2015.

\bibitem{Oehlert_92}
\BIBentryALTinterwordspacing
G.~W. Oehlert, ``A note on the delta method,'' \emph{The American
  Statistician}, vol.~46, no.~1, pp. 27--29, 1992. [Online]. Available:
  \url{http://www.tandfonline.com/doi/abs/10.1080/00031305.1992.10475842}
\BIBentrySTDinterwordspacing

\bibitem{Beleggia_06}
\BIBentryALTinterwordspacing
M.~Beleggia, M.~D. Graef, and Y.~T. Millev, ``The equivalent ellipsoid of a
  magnetized body,'' \emph{Journal of Physics D: Applied Physics}, vol.~39,
  no.~5, p. 891, 2006. [Online]. Available:
  \url{http://stacks.iop.org/0022-3727/39/i=5/a=001}
\BIBentrySTDinterwordspacing

\bibitem{Abbott_07}
J.~Abbott, O.~Ergeneman, M.~Kummer, A.~Hirt, and B.~Nelson, ``Modeling magnetic
  torque and force for controlled manipulation of soft-magnetic bodies,''
  \emph{Robotics, IEEE Transactions on}, vol.~23, no.~6, pp. 1247--1252, Dec
  2007.

\bibitem{Baldessari_67}
\BIBentryALTinterwordspacing
B.~Baldessari, ``The distribution of a quadratic form of normal random
  variables,'' \emph{Ann. Math. Statist.}, vol.~38, no.~6, pp. 1700--1704, 12
  1967. [Online]. Available: \url{http://dx.doi.org/10.1214/aoms/1177698604}
\BIBentrySTDinterwordspacing

\bibitem{Tan_77}
\BIBentryALTinterwordspacing
W.~Y. Tan, ``On the distribution of quadratic forms in normal random
  variables,'' \emph{Canadian Journal of Statistics}, vol.~5, no.~2, pp.
  241--250, 1977. [Online]. Available: \url{http://dx.doi.org/10.2307/3314784}
\BIBentrySTDinterwordspacing

\bibitem{Arulampalam_02}
M.~Arulampalam, S.~Maskell, N.~Gordon, and T.~Clapp, ``A tutorial on particle
  filters for online nonlinear/non-gaussian bayesian tracking,'' \emph{Signal
  Processing, IEEE Transactions on}, vol.~50, no.~2, pp. 174--188, Feb 2002.

\bibitem{Harbrecht_12}
H.~Harbrecht, M.~Peters, and R.~Schneider, ``On the low-rank approximation by
  the pivoted cholesky decomposition,'' \emph{Applied numerical mathematics},
  vol.~62, no.~4, pp. 428--440, 2012.

\end{thebibliography}
